<svg width="38" height="38" viewBox="0 0 38 38" fill="none" xmlns="http://www.w3.org/2000/svg">
<path d="M19 38C8.55 38 0 29.45 0 19C0 8.55 8.55 0 19 0C29.45 0 38 8.55 38 19C38 29.45 29.45 38 19 38ZM19 2.375C9.85625 2.375 2.375 9.85625 2.375 19C2.375 28.1437 9.85625 35.625 19 35.625C28.1437 35.625 35.625 28.1437 35.625 19C35.625 9.85625 28.1437 2.375 19 2.375Z" fill="black"/>
<path d="M20.425 27.9062V19.7719H23.2156L23.6312 16.625H20.425V14.6063C20.425 13.7156 20.6625 13.0625 22.0281 13.0625H23.75V10.2125C23.4531 10.1531 22.4437 10.0938 21.2562 10.0938C18.7625 10.0938 17.1 11.5781 17.1 14.25V16.625H14.25V19.7719H17.0406V27.9062H20.425Z" fill="black"/>
</svg>
